,en,es
LABEL_START_GAME,Start,Comenzar
LABEL_SETTINGS,Settings,Configuración
LABEL_EXIT,Exit,Salir
LABEL_GAME_OVER,Game over,Fin del juego
LABEL_SHIP_DESTROYED,Your ship has been destroyed,Tu nave ha sido destruída
LABEL_TRY_AGAIN,Try again,Intentar de nuevo
LABEL_MAIN_MENU,Main menu,Menú principal
LABEL_WAVE,Wave,Oleada
LABEL_WAVE_NUMBER,Wave %d,Oleada %d
LABEL_WAVE_CLEAR,Wave clear!,Oleada completada!
LABEL_SCORE,Score,Puntaje
LABEL_BONUS,Bonus,Bonus
LABEL_BULLETS,Bullets,Balas
LABEL_SPECIAL,Special,Especial
LABEL_READY,Ready,Listo
LABEL_PAUSE,Pause,Pausa
LABEL_RESUME,Resume,Continuar
LABEL_FULLSCREEN,Fullscreen,Pantalla completa
LABEL_SOUNDS,Sounds,Sonidos
LABEL_CONTROLS,Controls,Controles
LABEL_CANCEL,Cancel,Cancelar
LABEL_APPLY,Apply,Aplicar
LABEL_FORWARD,Forward,Avanzar
LABEL_TURN_LEFT,Turn left,Girar a la izquierda
LABEL_TURN_RIGHT,Turn right,Girar a la derecha
LABEL_FIRE,Fire,Disparar